05 Tarea pronósticos
…
             Eddie Aguilar 

library("easypackages")
packages("tidyverse","fpp3", "tsibble", "feasts","fable", "patchwork")
library("USgas")

Tarea

Series:

1. Serie de ventas de ropa en el Estado de Victoria, Australia

(clothes_victoria <- filter(aus_retail, State == "Victoria", Industry == "Clothing retailing") |> select(Month, Turnover))

# A tsibble: 441 x 2 [1M]
      Month Turnover
      <mth>    <dbl>
 1 1982 Apr     93.6
 2 1982 May     95.3
 3 1982 Jun     85.2
 4 1982 Jul     91.6
 5 1982 Aug     85.2
 6 1982 Sep     89.5
 7 1982 Oct     93  
 8 1982 Nov    108. 
 9 1982 Dec    148. 
10 1983 Jan     81.6
# … with 431 more rows
…
Al no ser datos muy aleatorios o los datos de una acción, y que los horizontes de pronóstico no son muy diferentes, no es necesario usar Bootstrap.

2. Serie de PIB per capita de Australia

(aus_gdp <- filter(global_economy, Code == "AUS") %>% 
   mutate(GDP_pc = GDP / Population) |> select(Year, GDP_pc))

# A tsibble: 58 x 2 [1Y]
    Year GDP_pc
   <dbl>  <dbl>
 1  1960  1807.
 2  1961  1874.
 3  1962  1851.
 4  1963  1964.
 5  1964  2128.
 6  1965  2277.
 7  1966  2340.
 8  1967  2576.
 9  1968  2719.
10  1969  2986.
# … with 48 more rows
…
