08 Resumen Arima
…
Igualmente, la diferenciación puede ayudar a estabilizar la media de una serie de tiempo, al quitar los cambioes de nivel en ella y eliminar tendencia o estacionalidad.

Podemos ver si una serie es estacionaria con ACF, si es estacionaria los valores se vuelven rapidamente cero en la función, de otra forma, decae lentamente y el valor del primer rezago es muy alto.

google_2015 <- gafa_stock %>% filter(Symbol == "GOOG" & year(Date) == 2015)

goog <- google_2015 %>% mutate(diff_close = Close)
for (i in 2:nrow(goog)){
  goog[i, length(goog)] = goog[i, 6] - goog[i-1, 6]
}
goog[1, length(goog)] = 0
goog

# A tsibble: 252 x 9 [!]
# Key:       Symbol [1]
   Symbol Date        Open  High   Low Close Adj_Close  Volume diff_close
   <chr>  <date>     <dbl> <dbl> <dbl> <dbl>     <dbl>   <dbl>      <dbl>
 1 GOOG   2015-01-02  526.  528.  521.  522.      522. 1447600      0    
 2 GOOG   2015-01-05  520.  521.  510.  511.      511. 2059800    -10.9  
 3 GOOG   2015-01-06  512.  513.  498.  499.      499. 2899900    -11.8  
 4 GOOG   2015-01-07  504.  504.  497.  498.      498. 2065100     -0.855
 5 GOOG   2015-01-08  495.  501.  488.  500.      500. 3353600      1.57 
 6 GOOG   2015-01-09  502.  502.  492.  493.      493. 2069400     -6.47 
 7 GOOG   2015-01-12  492.  493.  485.  490.      490. 2322400     -3.60 
 8 GOOG   2015-01-13  496.  500.  490.  493.      493. 2370500      3.61 
 9 GOOG   2015-01-14  492.  500.  490.  498.      498. 2235700      4.66 
10 GOOG   2015-01-15  503.  503.  495.  499.      499. 2715800      0.915
# … with 242 more rows
…
Diferenciación estacional

(lag-m differences)

Es la diferencia que entre una observación y la observació previa de la misma estación:

\[y'_t = y_t - t_{t-m}\]

donde m es el número de estaciones.

Hay veces que es necesario tomar diferencias estacionales y primeras diferencias para lograr que la serie se convierta en estacionaria.

PBS

# A tsibble: 67,596 x 9 [1M]
# Key:       Concession, Type, ATC1, ATC2 [336]
      Month Concession   Type        ATC1  ATC1_desc ATC2  ATC2_…¹ Scripts  Cost
      <mth> <chr>        <chr>       <chr> <chr>     <chr> <chr>     <dbl> <dbl>
 1 1991 Jul Concessional Co-payments A     Alimenta… A01   STOMAT…   18228 67877
 2 1991 Aug Concessional Co-payments A     Alimenta… A01   STOMAT…   15327 57011
 3 1991 Sep Concessional Co-payments A     Alimenta… A01   STOMAT…   14775 55020
 4 1991 Oct Concessional Co-payments A     Alimenta… A01   STOMAT…   15380 57222
 5 1991 Nov Concessional Co-payments A     Alimenta… A01   STOMAT…   14371 52120
 6 1991 Dec Concessional Co-payments A     Alimenta… A01   STOMAT…   15028 54299
 7 1992 Jan Concessional Co-payments A     Alimenta… A01   STOMAT…   11040 39753
 8 1992 Feb Concessional Co-payments A     Alimenta… A01   STOMAT…   15165 54405
 9 1992 Mar Concessional Co-payments A     Alimenta… A01   STOMAT…   16898 61108
10 1992 Apr Concessional Co-payments A     Alimenta… A01   STOMAT…   18141 65356
# … with 67,586 more rows, and abbreviated variable name ¹​ATC2_desc
…
