ejercicios_ets
…
datos_tbl <- tidyquant::tq_get(
  x    = c("REAINTRATREARAT10Y", "CEU6500000001"), 
  get  = "economic.data",
  from = "1982-01-01",
  to   = "2023-02-01"
)

Registered S3 method overwritten by 'quantmod':
  method            from
  as.zoo.data.frame zoo 

datos_tbl

# A tibble: 988 × 3
   symbol             date       price
   <chr>              <date>     <dbl>
 1 REAINTRATREARAT10Y 1982-01-01  7.62
 2 REAINTRATREARAT10Y 1982-02-01  7.66
 3 REAINTRATREARAT10Y 1982-03-01  7.13
 4 REAINTRATREARAT10Y 1982-04-01  7.41
 5 REAINTRATREARAT10Y 1982-05-01  7.32
 6 REAINTRATREARAT10Y 1982-06-01  7.35
 7 REAINTRATREARAT10Y 1982-07-01  7.56
 8 REAINTRATREARAT10Y 1982-08-01  6.88
 9 REAINTRATREARAT10Y 1982-09-01  6.51
10 REAINTRATREARAT10Y 1982-10-01  6.28
# … with 978 more rows
…
datos_tsbl <- datos_tbl |> 
  mutate(
    date = yearmonth(date),
    symbol = if_else(symbol == "REAINTRATREARAT10Y",
                     "int_rate", "employment")
  ) |> 
  as_tsibble(
    index = date,
    key   = symbol
  )

datos_tsbl

# A tsibble: 988 x 3 [1M]
# Key:       symbol [2]
   symbol         date price
   <chr>         <mth> <dbl>
 1 employment 1982 Jan  7370
 2 employment 1982 Feb  7425
 3 employment 1982 Mar  7468
 4 employment 1982 Apr  7515
 5 employment 1982 May  7542
 6 employment 1982 Jun  7580
 7 employment 1982 Jul  7593
 8 employment 1982 Aug  7581
 9 employment 1982 Sep  7565
10 employment 1982 Oct  7571
# … with 978 more rows
…
Como podemos ver, la serie de empleo tiene estacionalidad y tendencia alcista, mientras que la serie de tasa de interés tiene solo tendencia a la baja. Por lo tanto, utilizaremos diferentes modelos.

datos_wide <- datos_train |> 
  pivot_wider(
    names_from  = symbol,
    values_from = price
  )
datos_wide

# A tsibble: 470 x 3 [1M]
       date employment int_rate
      <mth>      <dbl>    <dbl>
 1 1982 Jan       7370     7.62
 2 1982 Feb       7425     7.66
 3 1982 Mar       7468     7.13
 4 1982 Apr       7515     7.41
 5 1982 May       7542     7.32
 6 1982 Jun       7580     7.35
 7 1982 Jul       7593     7.56
 8 1982 Aug       7581     6.88
 9 1982 Sep       7565     6.51
10 1982 Oct       7571     6.28
# … with 460 more rows
…
employment_fit_full <- employment_fit |> 
  cross_join(employment_fit2) |> 
  cross_join(employment_fit3)

employment_fc <- employment_fit_full |> 
  forecast(h = "2 years")

employment_fc

# A fable: 192 x 4 [1M]
# Key:     .model [8]
   .model     date       employment  .mean
   <chr>     <mth>           <dist>  <dbl>
 1 drift  2021 Mar  N(23537, 37603) 23537.
 2 drift  2021 Apr  N(23572, 75365) 23572.
 3 drift  2021 May N(23606, 113288) 23606.
 4 drift  2021 Jun N(23641, 151370) 23641.
 5 drift  2021 Jul N(23675, 189613) 23675.
 6 drift  2021 Aug N(23709, 228016) 23709.
 7 drift  2021 Sep N(23744, 266578) 23744.
 8 drift  2021 Oct N(23778, 305301) 23778.
 9 drift  2021 Nov N(23813, 344184) 23813.
10 drift  2021 Dec N(23847, 383226) 23847.
# … with 182 more rows
…
