Proyecto final
…
exports. Exportaciones de Bienes y servicios de México.

unemployment. Tasa de desempleo para gente de 15 años o mayor en México.

usd. Tipo de cambio de moneda nacional a dólares estadounidenses.

uncertainty. Indice de incertidumbre mundial para México.

Se tiene que predecir el valor de “gdp” para los siguientes 6 trimestres.

(gdp <- read_csv("data_gdp.csv", show_col_types = FALSE) |> 
  mutate(date = yearquarter(date)) |> 
  as_tsibble(index = date))

# A tsibble: 114 x 9 [1Q]
      date      gdp consumption gov_exp imports exports unemploy…¹   usd uncer…²
     <qtr>    <dbl>       <dbl>   <dbl>   <dbl>   <dbl>      <dbl> <dbl>   <dbl>
 1 1993 Q1 2502224.    1523567. 352614. 364603. 355262.        3.5  3.10  0     
 2 1993 Q2 2542759.    1576174. 357229. 393626. 369430.        3.2  3.11  0.0725
 3 1993 Q3 2516565.    1560920. 344130. 389554  366336.        3.7  3.12  0.260 
 4 1993 Q4 2604024.    1649564. 355999. 429461. 397139.        3.3  3.13  0.291 
 5 1994 Q1 2585847.    1564540. 363414. 432265. 394126.        3.7  3.18  0.0985
 6 1994 Q2 2693132.    1660768  370829. 461675. 398668.        3.6  3.34  0.263 
 7 1994 Q3 2650688.    1670989. 354772. 466061  398307.        3.9  3.39  0.469 
 8 1994 Q4 2738193.    1748497  363302. 497119. 427954.        3.6  3.64  0.177 
 9 1995 Q1 2547436.    1543778. 363213  363035. 442194.        5.1  6.01  0.329 
10 1995 Q2 2448930.    1545314. 363434. 384701  487308.        6.3  6.12  0     
# … with 104 more rows, and abbreviated variable names ¹​unemployment,
#   ²​uncertainty
…
Descomposición

dcmp <- gdp %>%
  model(Descomposicion = STL(gdp))
components(dcmp)

# A dable: 114 x 7 [1Q]
# Key:     .model [1]
# :        gdp = trend + season_year + remainder
   .model            date      gdp    trend season_year remainder season_adjust
   <chr>            <qtr>    <dbl>    <dbl>       <dbl>     <dbl>         <dbl>
 1 Descomposicion 1993 Q1 2502224. 2515226.     -20504.     7502.      2522728.
 2 Descomposicion 1993 Q2 2542759. 2534487.       6304.     1969.      2536455.
 3 Descomposicion 1993 Q3 2516565. 2555721.     -26829.   -12327.      2543393.
 4 Descomposicion 1993 Q4 2604024. 2578901.      40535.   -15413.      2563489.
 5 Descomposicion 1994 Q1 2585847. 2616584.     -20515.   -10221.      2606363.
 6 Descomposicion 1994 Q2 2693132. 2652317.       6937.    33877.      2686194.
 7 Descomposicion 1994 Q3 2650688. 2666961.     -26095.     9822.      2676783.
 8 Descomposicion 1994 Q4 2738193. 2632662.      39195.    66336.      2698998.
 9 Descomposicion 1995 Q1 2547436. 2570827.     -20560.    -2830.      2567996.
10 Descomposicion 1995 Q2 2448930. 2515609.       7519.   -74198.      2441411.
# … with 104 more rows
…
Como pudimos ver en la descomposición, el PIB tenía una diferente variación en su estacionalidad a lo largo del tiempo, y junto con las gráficas anteriores, vemos que fue buena idea implementar una transformación logarítmica. En un futuro veremos en que modelos es conveniente el uso de esta transformación.

Outliers

Podemos ver un claro outlier en el segundo y trecer trimestre de 2020, esto ocasionado claramente por la pandemia.

3.3 Especificación de modelos

Entrenamiento

(train <- gdp %>% filter_index('2000' ~ .))

# A tsibble: 86 x 9 [1Q]
      date      gdp consumption gov_exp imports exports unemploy…¹   usd uncer…²
     <qtr>    <dbl>       <dbl>   <dbl>   <dbl>   <dbl>      <dbl> <dbl>   <dbl>
 1 2000 Q1 3181256.    1998820. 416850. 791720. 734846.       2.29  9.40  0.194 
 2 2000 Q2 3248642.    2081967. 420797. 844792. 771249        2.56  9.57  0.0636
 3 2000 Q3 3252198.    2116043. 406947. 895782. 782768.       2.85  9.35  0.199 
 4 2000 Q4 3250826.    2200777. 412389  944804. 815622.       2.33  9.50  0.140 
 5 2001 Q1 3199030.    2083419. 402243  841208. 775435        2.88  9.68  0.141 
 6 2001 Q2 3241882.    2147364. 408302. 873444. 788422        2.55  9.21  0.142 
 7 2001 Q3 3214352.    2149689. 396516. 843634. 753876.       2.78  9.24  0     
 8 2001 Q4 3225357.    2227610. 404704. 889567  770568.       2.81  9.24  0.289 
 9 2002 Q1 3103885.    2092057. 401123. 809323. 741000.       3.23  9.11  0.429 
10 2002 Q2 3278091.    2218139. 411520. 915446. 783374.       2.86  9.48  0.378 
# … with 76 more rows, and abbreviated variable names ¹​unemployment,
#   ²​uncertainty
…
fit6 <- model(train, 
              dinamica = ARIMA(gdp ~ imports + gov_exp + consumption + usd + exports + unemployment + uncertainty),
              dinamica2 = ARIMA(gdp ~ imports + gov_exp + consumption + usd + exports + unemployment + uncertainty + pdq(1,0,2) + PDQ(1,1,1)),
              dinamica3 = ARIMA(gdp ~ imports + gov_exp + consumption + usd + exports + unemployment + uncertainty + pdq(1,1,2) + PDQ(1,1,1)))

Modelos de regresión lineal más dummies

Incluimos dos dummies para cubrir los dos trimestres de la pandemia.

(train2 <- train %>% mutate(
  q2_20 = if_else(date == yearquarter("2020 Q2"),1,0),
  q3_20 = if_else(date == yearquarter("2020 Q3"),1,0)
))

# A tsibble: 86 x 11 [1Q]
      date      gdp consum…¹ gov_exp imports exports unemp…²   usd uncer…³ q2_20
     <qtr>    <dbl>    <dbl>   <dbl>   <dbl>   <dbl>   <dbl> <dbl>   <dbl> <dbl>
 1 2000 Q1 3181256. 1998820. 416850. 791720. 734846.    2.29  9.40  0.194      0
 2 2000 Q2 3248642. 2081967. 420797. 844792. 771249     2.56  9.57  0.0636     0
 3 2000 Q3 3252198. 2116043. 406947. 895782. 782768.    2.85  9.35  0.199      0
 4 2000 Q4 3250826. 2200777. 412389  944804. 815622.    2.33  9.50  0.140      0
 5 2001 Q1 3199030. 2083419. 402243  841208. 775435     2.88  9.68  0.141      0
 6 2001 Q2 3241882. 2147364. 408302. 873444. 788422     2.55  9.21  0.142      0
 7 2001 Q3 3214352. 2149689. 396516. 843634. 753876.    2.78  9.24  0          0
 8 2001 Q4 3225357. 2227610. 404704. 889567  770568.    2.81  9.24  0.289      0
 9 2002 Q1 3103885. 2092057. 401123. 809323. 741000.    3.23  9.11  0.429      0
10 2002 Q2 3278091. 2218139. 411520. 915446. 783374.    2.86  9.48  0.378      0
# … with 76 more rows, 1 more variable: q3_20 <dbl>, and abbreviated variable
#   names ¹​consumption, ²​unemployment, ³​uncertainty
…
