07 Resumen ETS
…
Un método que suele ser robusto es el método Holt-Winters con tendencia amortiguada y estacionalidad multiplicativa:

ETS(y ~ error("M") + trend("Ad") + season("M"))

<ETS model definition>

Probando con los datos del tráfico de peatones con estacionalidad semanal y datos diarios:

(sth_cross_ped <- pedestrian %>%
  filter(Sensor == "Southern Cross Station", yearmonth(Date) == yearmonth("2016 July")) %>%
  index_by(Date) %>%
  summarise(Count = sum(Count)))

# A tsibble: 31 x 2 [1D]
   Date       Count
   <date>     <int>
 1 2016-07-01 17583
 2 2016-07-02  2525
 3 2016-07-03  1733
 4 2016-07-04 17274
 5 2016-07-05 16467
 6 2016-07-06 16773
 7 2016-07-07 16955
 8 2016-07-08 17225
 9 2016-07-09  3211
10 2016-07-10  1751
# … with 21 more rows
…
