Capítulos 2-5 R4DS
…
── Attaching core tidyverse packages ──────────────────────── tidyverse 2.0.0 ──
✔ dplyr     1.1.0     ✔ readr     2.1.4
✔ forcats   1.0.0     ✔ stringr   1.5.0
✔ ggplot2   3.4.1     ✔ tibble    3.2.0
✔ lubridate 1.9.2     ✔ tidyr     1.3.0
✔ purrr     1.0.1     
── Conflicts ────────────────────────────────────────── tidyverse_conflicts() ──
✖ dplyr::filter() masks stats::filter()
✖ dplyr::lag()    masks stats::lag()
ℹ Use the conflicted package (<http://conflicted.r-lib.org/>) to force all conflicts to become errors

mpg

# A tibble: 234 × 11
   manufacturer model      displ  year   cyl trans drv     cty   hwy fl    class
   <chr>        <chr>      <dbl> <int> <int> <chr> <chr> <int> <int> <chr> <chr>
 1 audi         a4           1.8  1999     4 auto… f        18    29 p     comp…
 2 audi         a4           1.8  1999     4 manu… f        21    29 p     comp…
 3 audi         a4           2    2008     4 manu… f        20    31 p     comp…
 4 audi         a4           2    2008     4 auto… f        21    30 p     comp…
 5 audi         a4           2.8  1999     6 auto… f        16    26 p     comp…
 6 audi         a4           2.8  1999     6 manu… f        18    26 p     comp…
 7 audi         a4           3.1  2008     6 auto… f        18    27 p     comp…
 8 audi         a4 quattro   1.8  1999     4 manu… 4        18    26 p     comp…
 9 audi         a4 quattro   1.8  1999     4 auto… 4        16    25 p     comp…
10 audi         a4 quattro   2    2008     4 manu… 4        20    28 p     comp…
# … with 224 more rows
…
Una asignación con paréntesis, imprime la variable:

(y <- seq(1, 10, length.out = 5))

[1]  1.00  3.25  5.50  7.75 10.00

5. Transformación de datos

Prerequisitos

library(nycflights13)
library(tidyverse)
flights

# A tibble: 336,776 × 19
    year month   day dep_time sched_de…¹ dep_d…² arr_t…³ sched…⁴ arr_d…⁵ carrier
   <int> <int> <int>    <int>      <int>   <dbl>   <int>   <int>   <dbl> <chr>  
 1  2013     1     1      517        515       2     830     819      11 UA     
 2  2013     1     1      533        529       4     850     830      20 UA     
 3  2013     1     1      542        540       2     923     850      33 AA     
 4  2013     1     1      544        545      -1    1004    1022     -18 B6     
 5  2013     1     1      554        600      -6     812     837     -25 DL     
 6  2013     1     1      554        558      -4     740     728      12 UA     
 7  2013     1     1      555        600      -5     913     854      19 B6     
 8  2013     1     1      557        600      -3     709     723     -14 EV     
 9  2013     1     1      557        600      -3     838     846      -8 B6     
10  2013     1     1      558        600      -2     753     745       8 AA     
# … with 336,766 more rows, 9 more variables: flight <int>, tailnum <chr>,
#   origin <chr>, dest <chr>, air_time <dbl>, distance <dbl>, hour <dbl>,
#   minute <dbl>, time_hour <dttm>, and abbreviated variable names
#   ¹​sched_dep_time, ²​dep_delay, ³​arr_time, ⁴​sched_arr_time, ⁵​arr_delay
…
Operadores logicos

& = and | = or ! = not

Operadores modulares

%% = Módulo %/% = División entera

Dplyr basics

filter()

filter(flights, month == 1, day == 1)

# A tibble: 842 × 19
    year month   day dep_time sched_de…¹ dep_d…² arr_t…³ sched…⁴ arr_d…⁵ carrier
   <int> <int> <int>    <int>      <int>   <dbl>   <int>   <int>   <dbl> <chr>  
 1  2013     1     1      517        515       2     830     819      11 UA     
 2  2013     1     1      533        529       4     850     830      20 UA     
 3  2013     1     1      542        540       2     923     850      33 AA     
 4  2013     1     1      544        545      -1    1004    1022     -18 B6     
 5  2013     1     1      554        600      -6     812     837     -25 DL     
 6  2013     1     1      554        558      -4     740     728      12 UA     
 7  2013     1     1      555        600      -5     913     854      19 B6     
 8  2013     1     1      557        600      -3     709     723     -14 EV     
 9  2013     1     1      557        600      -3     838     846      -8 B6     
10  2013     1     1      558        600      -2     753     745       8 AA     
# … with 832 more rows, 9 more variables: flight <int>, tailnum <chr>,
#   origin <chr>, dest <chr>, air_time <dbl>, distance <dbl>, hour <dbl>,
#   minute <dbl>, time_hour <dttm>, and abbreviated variable names
#   ¹​sched_dep_time, ²​dep_delay, ³​arr_time, ⁴​sched_arr_time, ⁵​arr_delay

Mantener valores vacios (NA):

filter(flights, is.na(month) | month > 1)

# A tibble: 309,772 × 19
    year month   day dep_time sched_de…¹ dep_d…² arr_t…³ sched…⁴ arr_d…⁵ carrier
   <int> <int> <int>    <int>      <int>   <dbl>   <int>   <int>   <dbl> <chr>  
 1  2013    10     1      447        500     -13     614     648     -34 US     
 2  2013    10     1      522        517       5     735     757     -22 UA     
 3  2013    10     1      536        545      -9     809     855     -46 AA     
 4  2013    10     1      539        545      -6     801     827     -26 UA     
 5  2013    10     1      539        545      -6     917     933     -16 B6     
 6  2013    10     1      544        550      -6     912     932     -20 B6     
 7  2013    10     1      549        600     -11     653     716     -23 EV     
 8  2013    10     1      550        600     -10     648     700     -12 US     
 9  2013    10     1      550        600     -10     649     659     -10 US     
10  2013    10     1      551        600      -9     727     730      -3 UA     
# … with 309,762 more rows, 9 more variables: flight <int>, tailnum <chr>,
#   origin <chr>, dest <chr>, air_time <dbl>, distance <dbl>, hour <dbl>,
#   minute <dbl>, time_hour <dttm>, and abbreviated variable names
#   ¹​sched_dep_time, ²​dep_delay, ³​arr_time, ⁴​sched_arr_time, ⁵​arr_delay

arrange()

arrange(flights, year, dep_time)

# A tibble: 336,776 × 19
    year month   day dep_time sched_de…¹ dep_d…² arr_t…³ sched…⁴ arr_d…⁵ carrier
   <int> <int> <int>    <int>      <int>   <dbl>   <int>   <int>   <dbl> <chr>  
 1  2013     1    13        1       2249      72     108    2357      71 B6     
 2  2013     1    31        1       2100     181     124    2225     179 WN     
 3  2013    11    13        1       2359       2     442     440       2 B6     
 4  2013    12    16        1       2359       2     447     437      10 B6     
 5  2013    12    20        1       2359       2     430     440     -10 B6     
 6  2013    12    26        1       2359       2     437     440      -3 B6     
 7  2013    12    30        1       2359       2     441     437       4 B6     
 8  2013     2    11        1       2100     181     111    2225     166 WN     
 9  2013     2    24        1       2245      76     121    2354      87 B6     
10  2013     3     8        1       2355       6     431     440      -9 B6     
# … with 336,766 more rows, 9 more variables: flight <int>, tailnum <chr>,
#   origin <chr>, dest <chr>, air_time <dbl>, distance <dbl>, hour <dbl>,
#   minute <dbl>, time_hour <dttm>, and abbreviated variable names
#   ¹​sched_dep_time, ²​dep_delay, ³​arr_time, ⁴​sched_arr_time, ⁵​arr_delay

arrange(flights, desc(dep_time))

# A tibble: 336,776 × 19
    year month   day dep_time sched_de…¹ dep_d…² arr_t…³ sched…⁴ arr_d…⁵ carrier
   <int> <int> <int>    <int>      <int>   <dbl>   <int>   <int>   <dbl> <chr>  
 1  2013    10    30     2400       2359       1     327     337     -10 B6     
 2  2013    11    27     2400       2359       1     515     445      30 B6     
 3  2013    12     5     2400       2359       1     427     440     -13 B6     
 4  2013    12     9     2400       2359       1     432     440      -8 B6     
 5  2013    12     9     2400       2250      70      59    2356      63 B6     
 6  2013    12    13     2400       2359       1     432     440      -8 B6     
 7  2013    12    19     2400       2359       1     434     440      -6 B6     
 8  2013    12    29     2400       1700     420     302    2025     397 AA     
 9  2013     2     7     2400       2359       1     432     436      -4 B6     
10  2013     2     7     2400       2359       1     443     444      -1 B6     
# … with 336,766 more rows, 9 more variables: flight <int>, tailnum <chr>,
#   origin <chr>, dest <chr>, air_time <dbl>, distance <dbl>, hour <dbl>,
#   minute <dbl>, time_hour <dttm>, and abbreviated variable names
#   ¹​sched_dep_time, ²​dep_delay, ³​arr_time, ⁴​sched_arr_time, ⁵​arr_delay

select()

# Select columns by name
select(flights, year, month, day)

# A tibble: 336,776 × 3
    year month   day
   <int> <int> <int>
 1  2013     1     1
 2  2013     1     1
 3  2013     1     1
 4  2013     1     1
 5  2013     1     1
 6  2013     1     1
 7  2013     1     1
 8  2013     1     1
 9  2013     1     1
10  2013     1     1
# … with 336,766 more rows

# Select all columns between year and day (inclusive)
select(flights, year:day)

# A tibble: 336,776 × 3
    year month   day
   <int> <int> <int>
 1  2013     1     1
 2  2013     1     1
 3  2013     1     1
 4  2013     1     1
 5  2013     1     1
 6  2013     1     1
 7  2013     1     1
 8  2013     1     1
 9  2013     1     1
10  2013     1     1
# … with 336,766 more rows

# Select all columns except those from year to day (inclusive)
select(flights, -(year:day))

# A tibble: 336,776 × 16
   dep_t…¹ sched…² dep_d…³ arr_t…⁴ sched…⁵ arr_d…⁶ carrier flight tailnum origin
     <int>   <int>   <dbl>   <int>   <int>   <dbl> <chr>    <int> <chr>   <chr> 
 1     517     515       2     830     819      11 UA        1545 N14228  EWR   
 2     533     529       4     850     830      20 UA        1714 N24211  LGA   
 3     542     540       2     923     850      33 AA        1141 N619AA  JFK   
 4     544     545      -1    1004    1022     -18 B6         725 N804JB  JFK   
 5     554     600      -6     812     837     -25 DL         461 N668DN  LGA   
 6     554     558      -4     740     728      12 UA        1696 N39463  EWR   
 7     555     600      -5     913     854      19 B6         507 N516JB  EWR   
 8     557     600      -3     709     723     -14 EV        5708 N829AS  LGA   
 9     557     600      -3     838     846      -8 B6          79 N593JB  JFK   
10     558     600      -2     753     745       8 AA         301 N3ALAA  LGA   
# … with 336,766 more rows, 6 more variables: dest <chr>, air_time <dbl>,
#   distance <dbl>, hour <dbl>, minute <dbl>, time_hour <dttm>, and abbreviated
#   variable names ¹​dep_time, ²​sched_dep_time, ³​dep_delay, ⁴​arr_time,
#   ⁵​sched_arr_time, ⁶​arr_delay

Priorizar columnas al inicio del tibble con everything():

select(flights, time_hour, air_time, everything())

# A tibble: 336,776 × 19
   time_hour           air_t…¹  year month   day dep_t…² sched…³ dep_d…⁴ arr_t…⁵
   <dttm>                <dbl> <int> <int> <int>   <int>   <int>   <dbl>   <int>
 1 2013-01-01 05:00:00     227  2013     1     1     517     515       2     830
 2 2013-01-01 05:00:00     227  2013     1     1     533     529       4     850
 3 2013-01-01 05:00:00     160  2013     1     1     542     540       2     923
 4 2013-01-01 05:00:00     183  2013     1     1     544     545      -1    1004
 5 2013-01-01 06:00:00     116  2013     1     1     554     600      -6     812
 6 2013-01-01 05:00:00     150  2013     1     1     554     558      -4     740
 7 2013-01-01 06:00:00     158  2013     1     1     555     600      -5     913
 8 2013-01-01 06:00:00      53  2013     1     1     557     600      -3     709
 9 2013-01-01 06:00:00     140  2013     1     1     557     600      -3     838
10 2013-01-01 06:00:00     138  2013     1     1     558     600      -2     753
# … with 336,766 more rows, 10 more variables: sched_arr_time <int>,
#   arr_delay <dbl>, carrier <chr>, flight <int>, tailnum <chr>, origin <chr>,
#   dest <chr>, distance <dbl>, hour <dbl>, minute <dbl>, and abbreviated
#   variable names ¹​air_time, ²​dep_time, ³​sched_dep_time, ⁴​dep_delay, ⁵​arr_time
…
Añadir variables

flights_sml <- select(flights, 
  year:day, 
  ends_with("delay"), 
  distance, 
  air_time
)
mutate(flights_sml,
  gain = dep_delay - arr_delay,
  speed = distance / air_time * 60
)

# A tibble: 336,776 × 9
    year month   day dep_delay arr_delay distance air_time  gain speed
   <int> <int> <int>     <dbl>     <dbl>    <dbl>    <dbl> <dbl> <dbl>
 1  2013     1     1         2        11     1400      227    -9  370.
 2  2013     1     1         4        20     1416      227   -16  374.
 3  2013     1     1         2        33     1089      160   -31  408.
 4  2013     1     1        -1       -18     1576      183    17  517.
 5  2013     1     1        -6       -25      762      116    19  394.
 6  2013     1     1        -4        12      719      150   -16  288.
 7  2013     1     1        -5        19     1065      158   -24  404.
 8  2013     1     1        -3       -14      229       53    11  259.
 9  2013     1     1        -3        -8      944      140     5  405.
10  2013     1     1        -2         8      733      138   -10  319.
# … with 336,766 more rows
…
# A tibble: 1 × 1
  delay
  <dbl>
1  12.6

Para explotar el funcionamiento de summarise() es recomendable usarlo con group_by:

by_day <- group_by(flights, year, month, day)
summarise(by_day, delay = mean(dep_delay, na.rm = TRUE))

`summarise()` has grouped output by 'year', 'month'. You can override using the
`.groups` argument.

# A tibble: 365 × 4
# Groups:   year, month [12]
    year month   day delay
   <int> <int> <int> <dbl>
 1  2013     1     1 11.5 
 2  2013     1     2 13.9 
 3  2013     1     3 11.0 
 4  2013     1     4  8.95
 5  2013     1     5  5.73
 6  2013     1     6  7.15
 7  2013     1     7  5.42
 8  2013     1     8  2.55
 9  2013     1     9  2.28
10  2013     1    10  2.84
# … with 355 more rows

Counts dentro de summarise:

Para ver el número de una categoría: (n()) Para ver el número de una categoría sin valores vacíos: (sum(!is.na(x))). Para ver el número de una categoría sin repetir: n_distinct(x)

Grouping con variables multiples:

daily <- group_by(flights, year, month, day)
(per_day   <- summarise(daily, flights = n()))

`summarise()` has grouped output by 'year', 'month'. You can override using the
`.groups` argument.

# A tibble: 365 × 4
# Groups:   year, month [12]
    year month   day flights
   <int> <int> <int>   <int>
 1  2013     1     1     842
 2  2013     1     2     943
 3  2013     1     3     914
 4  2013     1     4     915
 5  2013     1     5     720
 6  2013     1     6     832
 7  2013     1     7     933
 8  2013     1     8     899
 9  2013     1     9     902
10  2013     1    10     932
# … with 355 more rows
…
(per_year  <- summarise(per_month, flights = sum(flights)))

# A tibble: 1 × 2
   year flights
  <int>   <int>
1  2013  336776

Summarise combinados con otras funciones:

flights_sml %>% 
  group_by(year, month, day) %>%
  filter(rank(desc(arr_delay)) < 10)

# A tibble: 3,306 × 7
# Groups:   year, month, day [365]
    year month   day dep_delay arr_delay distance air_time
   <int> <int> <int>     <dbl>     <dbl>    <dbl>    <dbl>
 1  2013     1     1       853       851      184       41
 2  2013     1     1       290       338     1134      213
 3  2013     1     1       260       263      266       46
 4  2013     1     1       157       174      213       60
 5  2013     1     1       216       222      708      121
 6  2013     1     1       255       250      589      115
 7  2013     1     1       285       246     1085      146
 8  2013     1     1       192       191      199       44
 9  2013     1     1       379       456     1092      222
10  2013     1     2       224       207      550       94
# … with 3,296 more rows

popular_dests <- flights %>% 
  group_by(dest) %>% 
  filter(n() > 365)
popular_dests

# A tibble: 332,577 × 19
# Groups:   dest [77]
    year month   day dep_time sched_de…¹ dep_d…² arr_t…³ sched…⁴ arr_d…⁵ carrier
   <int> <int> <int>    <int>      <int>   <dbl>   <int>   <int>   <dbl> <chr>  
 1  2013     1     1      517        515       2     830     819      11 UA     
 2  2013     1     1      533        529       4     850     830      20 UA     
 3  2013     1     1      542        540       2     923     850      33 AA     
 4  2013     1     1      544        545      -1    1004    1022     -18 B6     
 5  2013     1     1      554        600      -6     812     837     -25 DL     
 6  2013     1     1      554        558      -4     740     728      12 UA     
 7  2013     1     1      555        600      -5     913     854      19 B6     
 8  2013     1     1      557        600      -3     709     723     -14 EV     
 9  2013     1     1      557        600      -3     838     846      -8 B6     
10  2013     1     1      558        600      -2     753     745       8 AA     
# … with 332,567 more rows, 9 more variables: flight <int>, tailnum <chr>,
#   origin <chr>, dest <chr>, air_time <dbl>, distance <dbl>, hour <dbl>,
#   minute <dbl>, time_hour <dttm>, and abbreviated variable names
#   ¹​sched_dep_time, ²​dep_delay, ³​arr_time, ⁴​sched_arr_time, ⁵​arr_delay
